{
	"driver":"mysql",
	"hostname":"127.0.0.1",
	"port":"3306",
	"dbname":"db-bwss3",
	"username":"root",
	"password":"root",
	"cookie_name":"hash",
	"cookie_expiry":"3600",
	"session_name":"_user",
	"token_name":"_token"
}